{
  "port": 8001,
  "engine": "redis",
  "redis_address": "redis://redis:6379",
  "token_hmac_secret_key": "my_secret",
  "api_key": "my_api_key",
  "admin_password": "password",
  "admin_secret": "secret",
  "admin": true,
  "allowed_origins": [
    "*"
  ],
  "proxy_connect_endpoint": "http://meetlang-backend:8000/backend/chat/centrifugo/connect/",
  "proxy_publish_endpoint": "http://meetlang-backend:8000/backend/chat/centrifugo/publish/",
  "publish": true,
  "proxy_publish": true,
  "proxy_subscribe_endpoint": "http://meetlang-backend:8000/backend/chat/centrifugo/subscribe/",
  "proxy_subscribe": true,
  "proxy_http_headers": [
    "Cookie"
  ]
}